{
   "books":[
      {
         "id":0,
         "isbn":"9083264959758",
         "published_date":"1987/05/06",
         "title":"laborum aute proident ",
         "description":"esse elit, ex cillum reprehenderit quis commodo esse"
      },
      {
         "id":1,
         "isbn":"6880710794713",
         "published_date":"1992/05/10",
         "title":"est magna ullamco ",
         "description":"ea irure eiusmod ex dolore do ipsum nostrud labore Ut id cillum reprehenderit tempor aliquip veniam, dolor quis nostrud irure"
      },
      {
         "id":2,
         "isbn":"0659662011120",
         "published_date":"1998/08/24",
         "title":"magna cupidatat sed occaecat ",
         "description":"incididunt ullamco officia enim proident, ullamco dolore in dolor aliquip in magna"
      },
      {
         "id":3,
         "isbn":"1659779525430",
         "published_date":"1994/07/10",
         "title":"sunt velit ",
         "description":"Lorem non pariatur. do est exercitation id qui est ut commodo qui dolor esse consequat. elit, culpa dolor deserunt commodo minim Lorem"
      },
      {
         "id":4,
         "isbn":"4970955148701",
         "published_date":"2003/02/28",
         "title":"proident officia in ",
         "description":"proident, amet, amet, ut Lorem sit"
      },
      {
         "id":5,
         "isbn":"1509989168598",
         "published_date":"1981/01/19",
         "title":"Duis ut anim ",
         "description":"nostrud dolore amet, irure cillum exercitation eu nisi do in tempor dolore est occaecat ad reprehenderit non do nisi deserunt commodo tempor"
      },
      {
         "id":6,
         "isbn":"4113019322831",
         "published_date":"1994/03/25",
         "title":"dolor id pariatur ",
         "description":"esse ut laboris qui Lorem dolor culpa"
      },
      {
         "id":7,
         "isbn":"2540839899644",
         "published_date":"2006/08/20",
         "title":"tempor id cillum ",
         "description":"esse dolor sit labore nisi magna minim ut qui nostrud nulla id aliqua. do consequat. officia ex sit velit ullamco velit consequat. culpa nisi officia irure aute sunt labore"
      },
      {
         "id":8,
         "isbn":"8591438676914",
         "published_date":"2001/11/13",
         "title":"minim veniam fugiat ",
         "description":"consequat. sit proident, velit magna sunt non adipisicing veniam, enim in"
      },
      {
         "id":9,
         "isbn":"5595902073629",
         "published_date":"1978/05/31",
         "title":"in qui in ut ",
         "description":"ullamco ad non Duis laboris dolore incididunt consequat. ex et"
      },
      {
         "id":10,
         "isbn":"1872115425031",
         "published_date":"1994/12/21",
         "title":"dolor in ",
         "description":"laboris veniam, veniam, dolore id nisi Lorem"
      },
      {
         "id":11,
         "isbn":"8867598776294",
         "published_date":"1991/10/26",
         "title":"eiusmod fugiat cillum ",
         "description":"eiusmod dolor veniam, eu ex laborum dolore mollit in Lorem tempor Duis dolore nostrud ea ullamco ut"
      },
      {
         "id":12,
         "isbn":"6168418603490",
         "published_date":"2005/05/11",
         "title":"sed Excepteur officia ",
         "description":"consectetur commodo minim ut dolore qui culpa est laboris do aliqua. Lorem laboris fugiat elit, aliqua. aute sint magna enim exercitation Ut consequat. ut proident, ipsum cupidatat ipsum id consequat."
      },
      {
         "id":13,
         "isbn":"8659896208610",
         "published_date":"2009/12/31",
         "title":"nostrud qui ",
         "description":"velit Excepteur Excepteur magna voluptate irure id labore Lorem fugiat ullamco culpa laboris dolor id reprehenderit"
      },
      {
         "id":14,
         "isbn":"2801373709170",
         "published_date":"2006/03/05",
         "title":"labore consequat ",
         "description":"officia in pariatur. non in proident, ut laborum nulla esse esse reprehenderit"
      },
      {
         "id":15,
         "isbn":"1685354301893",
         "published_date":"2003/06/08",
         "title":"aute culpa enim ",
         "description":"ea ullamco esse in aute ut ad irure quis"
      },
      {
         "id":16,
         "isbn":"5778741590005",
         "published_date":"1974/02/16",
         "title":"ipsum esse amet ",
         "description":"anim est dolor incididunt sunt ut ut magna occaecat voluptate sit laboris consectetur aute aliqua. eiusmod officia et ullamco in ipsum amet, ea consectetur"
      },
      {
         "id":17,
         "isbn":"1090766663856",
         "published_date":"1997/01/08",
         "title":"occaecat nostrud ",
         "description":"officia commodo cillum amet, nisi consectetur sit ex magna ut dolore et elit, id Excepteur minim"
      },
      {
         "id":18,
         "isbn":"4317694355386",
         "published_date":"1992/06/02",
         "title":"ad nisi cupidatat ",
         "description":"est ullamco commodo dolor amet, et dolore aute occaecat aliquip aute"
      },
      {
         "id":19,
         "isbn":"1305419175443",
         "published_date":"1979/09/25",
         "title":"fugiat magna deserunt ",
         "description":"incididunt ut id ut ut ut reprehenderit sunt labore sunt mollit"
      },
      {
         "id":20,
         "isbn":"0383429797604",
         "published_date":"1973/11/19",
         "title":"et eiusmod ",
         "description":"aliquip in ipsum id ea ad cupidatat ut commodo incididunt in dolor elit, mollit elit, velit reprehenderit dolore et sed veniam, ad nisi aute consectetur mollit"
      },
      {
         "id":21,
         "isbn":"4432051690608",
         "published_date":"1981/10/02",
         "title":"dolor ullamco ",
         "description":"Duis dolore officia voluptate fugiat voluptate aute"
      },
      {
         "id":22,
         "isbn":"6229262175968",
         "published_date":"1971/08/23",
         "title":"cupidatat Duis voluptate anim ",
         "description":"consectetur laborum fugiat enim ipsum officia tempor ipsum consectetur ut est dolore officia cupidatat Duis et"
      },
      {
         "id":23,
         "isbn":"0690987946343",
         "published_date":"1970/02/05",
         "title":"in do deserunt ",
         "description":"Lorem pariatur. enim"
      },
      {
         "id":24,
         "isbn":"0266250263384",
         "published_date":"1996/07/25",
         "title":"cillum cupidatat ",
         "description":"sunt nostrud proident, labore irure minim"
      }
   ]
}